[
    {
        "id": "59ee587798f49",
        "registration_date": "2017-10-24 00:00:39",
        "name": "Katas Bartonas",
        "email": "kyxiveci@yahoo.com",
        "categories": [
            "Pasaulis",
            "Energetika",
            "Laisvalaikis"
        ]
    },
    {
        "id": "59efbbceb4b19",
        "registration_date": "2017-10-25 01:16:46",
        "name": "Jonas Alickas",
        "email": "junta@com.com",
        "categories": [
            "Technologijos",
            "Sveikata"
        ]
    },
    {
        "id": "59efbd03cae35",
        "name": "Hedley Nolan",
        "email": "daperoj@hotmail.com",
        "categories": [
            "Kult\u016bra",
            "Verslas",
            "Technologijos"
        ],
        "registration_date": "2017-10-25 01:21:55"
    },
    {
        "id": "59efbd0ba1dd8",
        "name": "Buffy Newman",
        "email": "kinupop@gmail.com",
        "categories": [
            "Kriminalai",
            "Pasaulis",
            "Auto",
            "Energetika",
            "Technologijos",
            "Pramogos",
            "Sveikata",
            "Horoskopai"
        ],
        "registration_date": "2017-10-25 01:22:03"
    },
    {
        "id": "59efbd1da4c48",
        "name": "\u0104\u017euolas Ignauskas",
        "email": "ignas@yahoo.com",
        "categories": [
            "Kriminalai",
            "Pasaulis",
            "Verslas",
            "Energetika",
            "Pramogos",
            "I\u0161radimai",
            "Santykiai",
            "Horoskopai"
        ],
        "registration_date": "2017-10-25 01:22:21"
    },
    {
        "id": "59efbd2e32e49",
        "name": "Michal Lapkovskis",
        "email": "m.lapkovskis@gmail.com",
        "categories": [
            "Kriminalai",
            "Verslas",
            "I\u0161radimai",
            "Santykiai"
        ],
        "registration_date": "2017-10-25 01:22:38"
    },
    {
        "id": "59efbd398ff5a",
        "name": "Tadas Blinda",
        "email": "tadas.blinda@com.com",
        "categories": [
            "Kriminalai"
        ],
        "registration_date": "2017-10-25 01:22:49"
    },
    {
        "id": "59efbd57e0f59",
        "name": "Michailas Gorba\u010diovas",
        "email": "nesveikas@gmail.com",
        "categories": [
            "Kriminalai",
            "Pasaulis",
            "Energetika",
            "Pramogos",
            "Santykiai"
        ],
        "registration_date": "2017-10-25 01:23:19"
    },
    {
        "id": "59efbdbd002c9",
        "name": "Juozukas Uosis",
        "email": "juozukas@dangus.lt",
        "categories": [
            "Kriminalai",
            "Technologijos"
        ],
        "registration_date": "2017-10-25 01:25:01"
    },
    {
        "id": "59efbdd1e5f19",
        "name": "Aist\u0117 Morka",
        "email": "morku@lietus.com",
        "categories": [
            "Kriminalai",
            "Pramogos",
            "I\u0161radimai",
            "Laisvalaikis"
        ],
        "registration_date": "2017-10-25 01:25:21"
    },
    {
        "id": "59efbe02dcaea",
        "name": "Mindaugas Minedas",
        "email": "jonusas@alfa.lt",
        "categories": [
            "Kult\u016bra",
            "Pramogos"
        ],
        "registration_date": "2017-10-25 01:26:10"
    }
]